"2001","Bulgaria","Standardised death rate","Malignant neoplasms","Males","199.5"
"2002","Bulgaria","Standardised death rate","Malignant neoplasms","Males","202.1"
"2003","Bulgaria","Standardised death rate","Malignant neoplasms","Males","202.3"
"2004","Bulgaria","Standardised death rate","Malignant neoplasms","Males","208.8"
"2005","Bulgaria","Standardised death rate","Malignant neoplasms","Males","225.5"
"2006","Bulgaria","Standardised death rate","Malignant neoplasms","Males","224.5"
"2007","Bulgaria","Standardised death rate","Malignant neoplasms","Males","226.4"
"2008","Bulgaria","Standardised death rate","Malignant neoplasms","Males","229.6"
"2009","Bulgaria","Standardised death rate","Malignant neoplasms","Males","217.7"
"2010","Bulgaria","Standardised death rate","Malignant neoplasms","Males","209.6"
"2001","Czech Republic","Standardised death rate","Malignant neoplasms","Males","314.4"
"2002","Czech Republic","Standardised death rate","Malignant neoplasms","Males","321.5"
"2003","Czech Republic","Standardised death rate","Malignant neoplasms","Males","319.4"
"2004","Czech Republic","Standardised death rate","Malignant neoplasms","Males","313.5"
"2005","Czech Republic","Standardised death rate","Malignant neoplasms","Males","294.6"
"2006","Czech Republic","Standardised death rate","Malignant neoplasms","Males","284.0"
"2007","Czech Republic","Standardised death rate","Malignant neoplasms","Males","273.9"
"2008","Czech Republic","Standardised death rate","Malignant neoplasms","Males","269.3"
"2009","Czech Republic","Standardised death rate","Malignant neoplasms","Males","266.1"
"2010","Czech Republic","Standardised death rate","Malignant neoplasms","Males","262.9"
"2001","Germany","Standardised death rate","Malignant neoplasms","Males","231.0"
"2002","Germany","Standardised death rate","Malignant neoplasms","Males","228.8"
"2003","Germany","Standardised death rate","Malignant neoplasms","Males","225.3"
"2004","Germany","Standardised death rate","Malignant neoplasms","Males","219.3"
"2005","Germany","Standardised death rate","Malignant neoplasms","Males","215.3"
"2006","Germany","Standardised death rate","Malignant neoplasms","Males","210.9"
"2007","Germany","Standardised death rate","Malignant neoplasms","Males","206.4"
"2008","Germany","Standardised death rate","Malignant neoplasms","Males","206.2"
"2009","Germany","Standardised death rate","Malignant neoplasms","Males","201.9"
"2010","Germany","Standardised death rate","Malignant neoplasms","Males","199.2"
"2001","Estonia","Standardised death rate","Malignant neoplasms","Males","295.3"
"2002","Estonia","Standardised death rate","Malignant neoplasms","Males","303.3"
"2003","Estonia","Standardised death rate","Malignant neoplasms","Males","296.7"
"2004","Estonia","Standardised death rate","Malignant neoplasms","Males","304.7"
"2005","Estonia","Standardised death rate","Malignant neoplasms","Males","307.9"
"2006","Estonia","Standardised death rate","Malignant neoplasms","Males","302.1"
"2007","Estonia","Standardised death rate","Malignant neoplasms","Males","299.2"
"2008","Estonia","Standardised death rate","Malignant neoplasms","Males","290.0"
"2009","Estonia","Standardised death rate","Malignant neoplasms","Males","286.0"
"2010","Estonia","Standardised death rate","Malignant neoplasms","Males","290.5"
"2001","Ireland","Standardised death rate","Malignant neoplasms","Males","241.0"
"2002","Ireland","Standardised death rate","Malignant neoplasms","Males","235.3"
"2003","Ireland","Standardised death rate","Malignant neoplasms","Males","228.3"
"2004","Ireland","Standardised death rate","Malignant neoplasms","Males","230.8"
"2005","Ireland","Standardised death rate","Malignant neoplasms","Males","218.9"
"2006","Ireland","Standardised death rate","Malignant neoplasms","Males","226.3"
"2007","Ireland","Standardised death rate","Malignant neoplasms","Males","214.6"
"2008","Ireland","Standardised death rate","Malignant neoplasms","Males","214.5"
"2009","Ireland","Standardised death rate","Malignant neoplasms","Males","221.3"
"2010","Ireland","Standardised death rate","Malignant neoplasms","Males","199.0"
"2001","Greece","Standardised death rate","Malignant neoplasms","Males","223.8"
"2002","Greece","Standardised death rate","Malignant neoplasms","Males","215.1"
"2003","Greece","Standardised death rate","Malignant neoplasms","Males","217.9"
"2004","Greece","Standardised death rate","Malignant neoplasms","Males","219.0"
"2005","Greece","Standardised death rate","Malignant neoplasms","Males","217.5"
"2006","Greece","Standardised death rate","Malignant neoplasms","Males","207.3"
"2007","Greece","Standardised death rate","Malignant neoplasms","Males","211.2"
"2008","Greece","Standardised death rate","Malignant neoplasms","Males","210.1"
"2009","Greece","Standardised death rate","Malignant neoplasms","Males","207.3"
"2010","Greece","Standardised death rate","Malignant neoplasms","Males","197.7"
"2001","Spain","Standardised death rate","Malignant neoplasms","Males","250.9"
"2002","Spain","Standardised death rate","Malignant neoplasms","Males","245.0"
"2003","Spain","Standardised death rate","Malignant neoplasms","Males","243.9"
"2004","Spain","Standardised death rate","Malignant neoplasms","Males","240.0"
"2005","Spain","Standardised death rate","Malignant neoplasms","Males","232.7"
"2006","Spain","Standardised death rate","Malignant neoplasms","Males","228.8"
"2007","Spain","Standardised death rate","Malignant neoplasms","Males","227.3"
"2008","Spain","Standardised death rate","Malignant neoplasms","Males","222.0"
"2009","Spain","Standardised death rate","Malignant neoplasms","Males","219.4"
"2010","Spain","Standardised death rate","Malignant neoplasms","Males","217.5"
"2001","France","Standardised death rate","Malignant neoplasms","Males","265.3"
"2002","France","Standardised death rate","Malignant neoplasms","Males","262.5"
"2003","France","Standardised death rate","Malignant neoplasms","Males","258.1"
"2004","France","Standardised death rate","Malignant neoplasms","Males","250.7"
"2005","France","Standardised death rate","Malignant neoplasms","Males","249.0"
"2006","France","Standardised death rate","Malignant neoplasms","Males","242.0"
"2007","France","Standardised death rate","Malignant neoplasms","Males","236.9"
"2008","France","Standardised death rate","Malignant neoplasms","Males","231.1"
"2009","France","Standardised death rate","Malignant neoplasms","Males","228.8"
"2010","France","Standardised death rate","Malignant neoplasms","Males","222.7"
"2001","Croatia","Standardised death rate","Malignant neoplasms","Males","306.2"
"2002","Croatia","Standardised death rate","Malignant neoplasms","Males","306.3"
"2003","Croatia","Standardised death rate","Malignant neoplasms","Males","313.3"
"2004","Croatia","Standardised death rate","Malignant neoplasms","Males","308.1"
"2005","Croatia","Standardised death rate","Malignant neoplasms","Males","308.2"
"2006","Croatia","Standardised death rate","Malignant neoplasms","Males","303.2"
"2007","Croatia","Standardised death rate","Malignant neoplasms","Males","304.2"
"2008","Croatia","Standardised death rate","Malignant neoplasms","Males","301.8"
"2009","Croatia","Standardised death rate","Malignant neoplasms","Males","300.9"
"2010","Croatia","Standardised death rate","Malignant neoplasms","Males","297.6"
"2001","Latvia","Standardised death rate","Malignant neoplasms","Males","300.2"
"2002","Latvia","Standardised death rate","Malignant neoplasms","Males","289.8"
"2003","Latvia","Standardised death rate","Malignant neoplasms","Males","290.9"
"2004","Latvia","Standardised death rate","Malignant neoplasms","Males","295.2"
"2005","Latvia","Standardised death rate","Malignant neoplasms","Males","296.7"
"2006","Latvia","Standardised death rate","Malignant neoplasms","Males","299.3"
"2007","Latvia","Standardised death rate","Malignant neoplasms","Males","291.1"
"2008","Latvia","Standardised death rate","Malignant neoplasms","Males","295.3"
"2009","Latvia","Standardised death rate","Malignant neoplasms","Males","288.0"
"2010","Latvia","Standardised death rate","Malignant neoplasms","Males","294.8"
"2001","Lithuania","Standardised death rate","Malignant neoplasms","Males","295.4"
"2002","Lithuania","Standardised death rate","Malignant neoplasms","Males","290.4"
"2003","Lithuania","Standardised death rate","Malignant neoplasms","Males","285.0"
"2004","Lithuania","Standardised death rate","Malignant neoplasms","Males","291.2"
"2005","Lithuania","Standardised death rate","Malignant neoplasms","Males","289.1"
"2006","Lithuania","Standardised death rate","Malignant neoplasms","Males","299.4"
"2007","Lithuania","Standardised death rate","Malignant neoplasms","Males","305.6"
"2008","Lithuania","Standardised death rate","Malignant neoplasms","Males","290.0"
"2009","Lithuania","Standardised death rate","Malignant neoplasms","Males","293.2"
"2010","Lithuania","Standardised death rate","Malignant neoplasms","Males","288.9"
"2001","Luxembourg","Standardised death rate","Malignant neoplasms","Males","225.8"
"2002","Luxembourg","Standardised death rate","Malignant neoplasms","Males","225.6"
"2003","Luxembourg","Standardised death rate","Malignant neoplasms","Males","235.9"
"2004","Luxembourg","Standardised death rate","Malignant neoplasms","Males","229.6"
"2005","Luxembourg","Standardised death rate","Malignant neoplasms","Males","209.4"
"2006","Luxembourg","Standardised death rate","Malignant neoplasms","Males","205.9"
"2007","Luxembourg","Standardised death rate","Malignant neoplasms","Males","218.8"
"2008","Luxembourg","Standardised death rate","Malignant neoplasms","Males","194.4"
"2009","Luxembourg","Standardised death rate","Malignant neoplasms","Males","206.9"
"2010","Luxembourg","Standardised death rate","Malignant neoplasms","Males","211.7"
"2001","Hungary","Standardised death rate","Malignant neoplasms","Males","374.4"
"2002","Hungary","Standardised death rate","Malignant neoplasms","Males","370.6"
"2003","Hungary","Standardised death rate","Malignant neoplasms","Males","370.8"
"2004","Hungary","Standardised death rate","Malignant neoplasms","Males","367.1"
"2005","Hungary","Standardised death rate","Malignant neoplasms","Males","330.8"
"2006","Hungary","Standardised death rate","Malignant neoplasms","Males","337.1"
"2007","Hungary","Standardised death rate","Malignant neoplasms","Males","336.5"
"2008","Hungary","Standardised death rate","Malignant neoplasms","Males","337.1"
"2009","Hungary","Standardised death rate","Malignant neoplasms","Males","339.3"
"2010","Hungary","Standardised death rate","Malignant neoplasms","Males","333.1"
"2001","Malta","Standardised death rate","Malignant neoplasms","Males","217.2"
"2002","Malta","Standardised death rate","Malignant neoplasms","Males","211.8"
"2003","Malta","Standardised death rate","Malignant neoplasms","Males","192.0"
"2004","Malta","Standardised death rate","Malignant neoplasms","Males","189.0"
"2005","Malta","Standardised death rate","Malignant neoplasms","Males","183.4"
"2006","Malta","Standardised death rate","Malignant neoplasms","Males","198.0"
"2007","Malta","Standardised death rate","Malignant neoplasms","Males","194.7"
"2008","Malta","Standardised death rate","Malignant neoplasms","Males","205.8"
"2009","Malta","Standardised death rate","Malignant neoplasms","Males","197.2"
"2010","Malta","Standardised death rate","Malignant neoplasms","Males","184.3"
"2001","Netherlands","Standardised death rate","Malignant neoplasms","Males","254.0"
"2002","Netherlands","Standardised death rate","Malignant neoplasms","Males","250.5"
"2003","Netherlands","Standardised death rate","Malignant neoplasms","Males","246.3"
"2004","Netherlands","Standardised death rate","Malignant neoplasms","Males","244.0"
"2005","Netherlands","Standardised death rate","Malignant neoplasms","Males","240.1"
"2006","Netherlands","Standardised death rate","Malignant neoplasms","Males","234.6"
"2007","Netherlands","Standardised death rate","Malignant neoplasms","Males","232.0"
"2008","Netherlands","Standardised death rate","Malignant neoplasms","Males","227.9"
"2009","Netherlands","Standardised death rate","Malignant neoplasms","Males","227.2"
"2010","Netherlands","Standardised death rate","Malignant neoplasms","Males","226.9"
"2001","Austria","Standardised death rate","Malignant neoplasms","Males","220.4"
"2002","Austria","Standardised death rate","Malignant neoplasms","Males","227.0"
"2003","Austria","Standardised death rate","Malignant neoplasms","Males","227.9"
"2004","Austria","Standardised death rate","Malignant neoplasms","Males","223.6"
"2005","Austria","Standardised death rate","Malignant neoplasms","Males","215.7"
"2006","Austria","Standardised death rate","Malignant neoplasms","Males","212.3"
"2007","Austria","Standardised death rate","Malignant neoplasms","Males","202.2"
"2008","Austria","Standardised death rate","Malignant neoplasms","Males","211.2"
"2009","Austria","Standardised death rate","Malignant neoplasms","Males","203.9"
"2010","Austria","Standardised death rate","Malignant neoplasms","Males","198.4"
"2001","Poland","Standardised death rate","Malignant neoplasms","Males","302.3"
"2002","Poland","Standardised death rate","Malignant neoplasms","Males","305.6"
"2003","Poland","Standardised death rate","Malignant neoplasms","Males","300.6"
"2004","Poland","Standardised death rate","Malignant neoplasms","Males","302.5"
"2005","Poland","Standardised death rate","Malignant neoplasms","Males","295.6"
"2006","Poland","Standardised death rate","Malignant neoplasms","Males","293.2"
"2007","Poland","Standardised death rate","Malignant neoplasms","Males","290.6"
"2008","Poland","Standardised death rate","Malignant neoplasms","Males","284.1"
"2009","Poland","Standardised death rate","Malignant neoplasms","Males","279.5"
"2010","Poland","Standardised death rate","Malignant neoplasms","Males","270.1"
"2001","Portugal","Standardised death rate","Malignant neoplasms","Males","222.6"
"2002","Portugal","Standardised death rate","Malignant neoplasms","Males","223.5"
"2003","Portugal","Standardised death rate","Malignant neoplasms","Males","224.7"
"2004","Portugal","Standardised death rate","Malignant neoplasms","Males","216.2"
"2005","Portugal","Standardised death rate","Malignant neoplasms","Males","215.6"
"2006","Portugal","Standardised death rate","Malignant neoplasms","Males","210.4"
"2007","Portugal","Standardised death rate","Malignant neoplasms","Males","215.5"
"2008","Portugal","Standardised death rate","Malignant neoplasms","Males","218.0"
"2009","Portugal","Standardised death rate","Malignant neoplasms","Males","216.4"
"2010","Portugal","Standardised death rate","Malignant neoplasms","Males","215.9"
"2001","Romania","Standardised death rate","Malignant neoplasms","Males","234.9"
"2002","Romania","Standardised death rate","Malignant neoplasms","Males","235.7"
"2003","Romania","Standardised death rate","Malignant neoplasms","Males","236.8"
"2004","Romania","Standardised death rate","Malignant neoplasms","Males","236.7"
"2005","Romania","Standardised death rate","Malignant neoplasms","Males","240.2"
"2006","Romania","Standardised death rate","Malignant neoplasms","Males","240.8"
"2007","Romania","Standardised death rate","Malignant neoplasms","Males","240.5"
"2008","Romania","Standardised death rate","Malignant neoplasms","Males","245.9"
"2009","Romania","Standardised death rate","Malignant neoplasms","Males","248.3"
"2010","Romania","Standardised death rate","Malignant neoplasms","Males","248.2"
"2001","Slovenia","Standardised death rate","Malignant neoplasms","Males","291.3"
"2002","Slovenia","Standardised death rate","Malignant neoplasms","Males","294.9"
"2003","Slovenia","Standardised death rate","Malignant neoplasms","Males","289.1"
"2004","Slovenia","Standardised death rate","Malignant neoplasms","Males","279.0"
"2005","Slovenia","Standardised death rate","Malignant neoplasms","Males","272.4"
"2006","Slovenia","Standardised death rate","Malignant neoplasms","Males","277.3"
"2007","Slovenia","Standardised death rate","Malignant neoplasms","Males","288.8"
"2008","Slovenia","Standardised death rate","Malignant neoplasms","Males","277.4"
"2009","Slovenia","Standardised death rate","Malignant neoplasms","Males","277.7"
"2010","Slovenia","Standardised death rate","Malignant neoplasms","Males","270.3"
"2001","Slovakia","Standardised death rate","Malignant neoplasms","Males","328.8"
"2002","Slovakia","Standardised death rate","Malignant neoplasms","Males","310.9"
"2003","Slovakia","Standardised death rate","Malignant neoplasms","Males","308.1"
"2004","Slovakia","Standardised death rate","Malignant neoplasms","Males","302.0"
"2005","Slovakia","Standardised death rate","Malignant neoplasms","Males","304.1"
"2006","Slovakia","Standardised death rate","Malignant neoplasms","Males","293.1"
"2007","Slovakia","Standardised death rate","Malignant neoplasms","Males","292.2"
"2008","Slovakia","Standardised death rate","Malignant neoplasms","Males","287.6"
"2009","Slovakia","Standardised death rate","Malignant neoplasms","Males","276.4"
"2010","Slovakia","Standardised death rate","Malignant neoplasms","Males","282.8"
"2001","Finland","Standardised death rate","Malignant neoplasms","Males","199.2"
"2002","Finland","Standardised death rate","Malignant neoplasms","Males","192.8"
"2003","Finland","Standardised death rate","Malignant neoplasms","Males","190.2"
"2004","Finland","Standardised death rate","Malignant neoplasms","Males","188.9"
"2005","Finland","Standardised death rate","Malignant neoplasms","Males","183.7"
"2006","Finland","Standardised death rate","Malignant neoplasms","Males","183.9"
"2007","Finland","Standardised death rate","Malignant neoplasms","Males","177.6"
"2008","Finland","Standardised death rate","Malignant neoplasms","Males","171.9"
"2009","Finland","Standardised death rate","Malignant neoplasms","Males","171.4"
"2010","Finland","Standardised death rate","Malignant neoplasms","Males","174.4"
"2001","Sweden","Standardised death rate","Malignant neoplasms","Males","185.3"
"2002","Sweden","Standardised death rate","Malignant neoplasms","Males","182.4"
"2003","Sweden","Standardised death rate","Malignant neoplasms","Males","186.3"
"2004","Sweden","Standardised death rate","Malignant neoplasms","Males","181.9"
"2005","Sweden","Standardised death rate","Malignant neoplasms","Males","182.4"
"2006","Sweden","Standardised death rate","Malignant neoplasms","Males","178.4"
"2007","Sweden","Standardised death rate","Malignant neoplasms","Males","172.0"
"2008","Sweden","Standardised death rate","Malignant neoplasms","Males","170.4"
"2009","Sweden","Standardised death rate","Malignant neoplasms","Males","168.1"
"2010","Sweden","Standardised death rate","Malignant neoplasms","Males","163.6"
"2001","United Kingdom","Standardised death rate","Malignant neoplasms","Males","233.6"
"2002","United Kingdom","Standardised death rate","Malignant neoplasms","Males","231.8"
"2003","United Kingdom","Standardised death rate","Malignant neoplasms","Males","226.0"
"2004","United Kingdom","Standardised death rate","Malignant neoplasms","Males","221.5"
"2005","United Kingdom","Standardised death rate","Malignant neoplasms","Males","216.9"
"2006","United Kingdom","Standardised death rate","Malignant neoplasms","Males","215.6"
"2007","United Kingdom","Standardised death rate","Malignant neoplasms","Males","212.3"
"2008","United Kingdom","Standardised death rate","Malignant neoplasms","Males","209.1"
"2009","United Kingdom","Standardised death rate","Malignant neoplasms","Males","205.7"
"2010","United Kingdom","Standardised death rate","Malignant neoplasms","Males","202.1"
"2001","Norway","Standardised death rate","Malignant neoplasms","Males","214.6"
"2002","Norway","Standardised death rate","Malignant neoplasms","Males","217.1"
"2003","Norway","Standardised death rate","Malignant neoplasms","Males","212.3"
"2004","Norway","Standardised death rate","Malignant neoplasms","Males","207.2"
"2005","Norway","Standardised death rate","Malignant neoplasms","Males","203.9"
"2006","Norway","Standardised death rate","Malignant neoplasms","Males","197.0"
"2007","Norway","Standardised death rate","Malignant neoplasms","Males","199.8"
"2008","Norway","Standardised death rate","Malignant neoplasms","Males","195.9"
"2009","Norway","Standardised death rate","Malignant neoplasms","Males","190.9"
"2010","Norway","Standardised death rate","Malignant neoplasms","Males","192.5"
"2001","Switzerland","Standardised death rate","Malignant neoplasms","Males","214.0"
"2002","Switzerland","Standardised death rate","Malignant neoplasms","Males","199.9"
"2003","Switzerland","Standardised death rate","Malignant neoplasms","Males","198.8"
"2004","Switzerland","Standardised death rate","Malignant neoplasms","Males","193.3"
"2005","Switzerland","Standardised death rate","Malignant neoplasms","Males","191.7"
"2006","Switzerland","Standardised death rate","Malignant neoplasms","Males","186.6"
"2007","Switzerland","Standardised death rate","Malignant neoplasms","Males","187.2"
"2008","Switzerland","Standardised death rate","Malignant neoplasms","Males","183.2"
"2009","Switzerland","Standardised death rate","Malignant neoplasms","Males","176.8"
"2010","Switzerland","Standardised death rate","Malignant neoplasms","Males","177.0"
"2001","Former Yugoslav Republic of Macedonia","Standardised death rate","Malignant neoplasms","Males","215.4"
"2002","Former Yugoslav Republic of Macedonia","Standardised death rate","Malignant neoplasms","Males","219.1"
"2003","Former Yugoslav Republic of Macedonia","Standardised death rate","Malignant neoplasms","Males","216.9"
"2004","Former Yugoslav Republic of Macedonia","Standardised death rate","Malignant neoplasms","Males","206.3"
"2005","Former Yugoslav Republic of Macedonia","Standardised death rate","Malignant neoplasms","Males","208.7"
"2006","Former Yugoslav Republic of Macedonia","Standardised death rate","Malignant neoplasms","Males","219.3"
"2007","Former Yugoslav Republic of Macedonia","Standardised death rate","Malignant neoplasms","Males","222.0"
"2008","Former Yugoslav Republic of Macedonia","Standardised death rate","Malignant neoplasms","Males","223.0"
"2009","Former Yugoslav Republic of Macedonia","Standardised death rate","Malignant neoplasms","Males","228.1"
"2010","Former Yugoslav Republic of Macedonia","Standardised death rate","Malignant neoplasms","Males","222.6"
